# Plant UML

@startuml
Alice -> Bob: 
Bob --> Alice: 

Alice -> Bob:
Alice <-- Bob:vs
@enduml

@startuml
actor Bob #red
' The only difference between actor
'and participant is the drawing
participant Alice
participant "I have a really\nlong name" as L #99FF99
/' You can also declare:
   participant L as "I have a really\nlong name"  #99FF99
  '/

Alice->Bob: Authentication Request
Bob->Alice: Authentication Response
Bob->L: Log transaction
@enduml